<svg xmlns="http://www.w3.org/2000/svg" width="36" height="10" viewBox="0 0 36 10">
    <path id="loading" class="cls-1"
          d="M609,425a5,5,0,1,1-5,5A5,5,0,0,1,609,425Zm13,0a5,5,0,1,1-5,5A5,5,0,0,1,622,425Zm13,0a5,5,0,1,1-5,5A5,5,0,0,1,635,425Z"
          transform="translate(-604 -425)"/>
</svg>
